................................
----------------------------------------------------------------------
Ran 32 tests in 0.072s

OK
Name             Stmts   Miss Branch BrPart  Cover   Missing
------------------------------------------------------------
Collatz.py          49      0     22      0   100%
TestCollatz.py     122      0      0      0   100%
------------------------------------------------------------
TOTAL              171      0     22      0   100%
