...................
----------------------------------------------------------------------
Ran 19 tests in 12.136s

OK
Name             Stmts   Miss Branch BrPart  Cover   Missing
------------------------------------------------------------
Collatz.py          43      0     16      0   100%
TestCollatz.py      81      0      0      0   100%
------------------------------------------------------------
TOTAL              124      0     16      0   100%
